{
	"info": {
		"_postman_id": "e6ba43ef-bde9-4eda-97ba-aab30473a826",
		"name": "iVC",
		"schema": "https://schema.getpostman.com/json/collection/v2.1.0/collection.json"
	},
	"item": [
		{
			"name": "Token",
			"item": [
				{
					"name": "Generate Token",
					"protocolProfileBehavior": {
						"disableBodyPruning": true
					},
					"request": {
						"method": "GET",
						"header": [],
						"body": {
							"mode": "raw",
							"raw": "{\n    \"username\": \"stw\",\n    \"password\": \"admin\",\n    \"LoginType\": 0\n}",
							"options": {
								"raw": {
									"language": "json"
								}
							}
						},
						"url": {
							"raw": "http://203.127.83.146/iVC_API/api/token",
							"protocol": "http",
							"host": [
								"203",
								"127",
								"83",
								"146"
							],
							"path": [
								"iVC_API",
								"api",
								"token"
							]
						}
					},
					"response": []
				}
			],
			"protocolProfileBehavior": {}
		},
		{
			"name": "Conference",
			"item": [
				{
					"name": "Create Conference",
					"request": {
						"auth": {
							"type": "bearer",
							"bearer": [
								{
									"key": "token",
									"value": "eyJhbGciOiJIUzI1NiIsInR5cCI6IkpXVCJ9.eyJ1bmlxdWVfbmFtZSI6IkExMDAyIiwiVXNlcklEIjoiQTEwMDIiLCJMb2dpblR5cGUiOiIwIiwiVXNlcmxldmVsaWQiOiIiLCJUaWNrZXRFeHBpcmVEYXRlIjoiMjIvNC8yMDIwIDY6Mzg6MTUgUE0iLCJzdWIiOiJzdHciLCJqdGkiOiI2ZGUzZjk0OS0wNzExLTQ5ZmYtYjI2OC04Y2YzNTk5MjAzMzgiLCJpYXQiOjE1ODc1ODAzOTUsIm5iZiI6MTU4NzU4MDM5NSwiZXhwIjoxNTg3NTk4Mzk1fQ.-1uC_jrUdtdCbqoe2-K_4ymBVVNG1xc0co7qCLX5lWw",
									"type": "string"
								}
							]
						},
						"method": "POST",
						"header": [],
						"body": {
							"mode": "raw",
							"raw": "{\r\n\t\"topic\":\"test fes fair80\",\r\n\t\"start_time\":\"2020-05-24T11:59:00Z\",\r\n\t\"duration\":60,\r\n\t\"timezone\":\"America/Los_Angeles\",\r\n\t\"password\":\"avfhfgh\",\r\n\t\"agenda\":\"stw agenda webinar\",\r\n\t\"configuration\":1\r\n\t\r\n}",
							"options": {
								"raw": {
									"language": "json"
								}
							}
						},
						"url": {
							"raw": "http://203.127.83.146/iVC_API/api/conference/0",
							"protocol": "http",
							"host": [
								"203",
								"127",
								"83",
								"146"
							],
							"path": [
								"iVC_API",
								"api",
								"conference",
								"0"
							]
						}
					},
					"response": []
				},
				{
					"name": "Update Conference",
					"request": {
						"auth": {
							"type": "bearer",
							"bearer": [
								{
									"key": "token",
									"value": "eyJhbGciOiJIUzI1NiIsInR5cCI6IkpXVCJ9.eyJ1bmlxdWVfbmFtZSI6IkExMDAyIiwiVXNlcklEIjoiQTEwMDIiLCJMb2dpblR5cGUiOiIwIiwiVXNlcmxldmVsaWQiOiIiLCJUaWNrZXRFeHBpcmVEYXRlIjoiMjIvNC8yMDIwIDQ6MTM6NDUgUE0iLCJzdWIiOiJzdHciLCJqdGkiOiJlMDY1ZTYyNi1lMTI1LTQwNTktODhlZi1jNDJjNzYzOTkwN2UiLCJpYXQiOjE1ODc1NzE3MjUsIm5iZiI6MTU4NzU3MTcyNSwiZXhwIjoxNTg3NTg5NzI1fQ._ZlvEhw8848nqA_EW47GngcMLMqg48XozZMOxcZZPuY",
									"type": "string"
								}
							]
						},
						"method": "PATCH",
						"header": [],
						"body": {
							"mode": "raw",
							"raw": "{\r\n\t\"topic\":\"test fes fair80\",\r\n\t\"start_time\":\"2020-04-7T11:59:00Z\",\r\n\t\"duration\":60,\r\n\t\"timezone\":\"America/Los_Angeles\",\r\n\t\"password\":\"avfhfgh\",\r\n\t\"agenda\":\"stw agenda webinar\",\r\n\t\"configuration\":1\r\n\t\r\n}",
							"options": {
								"raw": {
									"language": "json"
								}
							}
						},
						"url": {
							"raw": "http://203.127.83.146/iVC_API/api/conference/C1047",
							"protocol": "http",
							"host": [
								"203",
								"127",
								"83",
								"146"
							],
							"path": [
								"iVC_API",
								"api",
								"conference",
								"C1047"
							]
						}
					},
					"response": []
				},
				{
					"name": "Get Conference",
					"request": {
						"auth": {
							"type": "bearer",
							"bearer": [
								{
									"key": "token",
									"value": "eyJhbGciOiJIUzI1NiIsInR5cCI6IkpXVCJ9.eyJ1bmlxdWVfbmFtZSI6IkExMDAyIiwiVXNlcklEIjoiQTEwMDIiLCJMb2dpblR5cGUiOiIwIiwiVXNlcmxldmVsaWQiOiIiLCJUaWNrZXRFeHBpcmVEYXRlIjoiMjIvNC8yMDIwIDg6Mjk6NTAgQU0iLCJzdWIiOiJzdHciLCJqdGkiOiIzZDRhMDhiNS05NjU2LTQxNWEtODE1Zi0xNTU2OWQ5MzI3ODAiLCJpYXQiOjE1ODc1NDM4OTAsIm5iZiI6MTU4NzU0Mzg5MCwiZXhwIjoxNTg3NTYxODkwfQ.wXcd16c1Ds3aJC4z1D8EPpj9AddDruPFMuxU_ufMu6o",
									"type": "string"
								}
							]
						},
						"method": "GET",
						"header": [],
						"url": {
							"raw": "http://203.127.83.146/iVC_API/api/conference/C1047",
							"protocol": "http",
							"host": [
								"203",
								"127",
								"83",
								"146"
							],
							"path": [
								"iVC_API",
								"api",
								"conference",
								"C1047"
							]
						}
					},
					"response": []
				},
				{
					"name": "Conference List",
					"request": {
						"auth": {
							"type": "noauth"
						},
						"method": "POST",
						"header": [],
						"body": {
							"mode": "raw",
							"raw": "{\r\n\t\"conferenceDate\":\"26 April\"\r\n\t\r\n}",
							"options": {
								"raw": {
									"language": "json"
								}
							}
						},
						"url": {
							"raw": "http://203.127.83.146/iVC_API/api/Public/conferences",
							"protocol": "http",
							"host": [
								"203",
								"127",
								"83",
								"146"
							],
							"path": [
								"iVC_API",
								"api",
								"Public",
								"conferences"
							]
						}
					},
					"response": []
				},
				{
					"name": "Grant Access For A Conference ",
					"request": {
						"auth": {
							"type": "bearer",
							"bearer": [
								{
									"key": "token",
									"value": "eyJhbGciOiJIUzI1NiIsInR5cCI6IkpXVCJ9.eyJ1bmlxdWVfbmFtZSI6IkExMDAyIiwiVXNlcklEIjoiQTEwMDIiLCJMb2dpblR5cGUiOiIwIiwiVXNlcmxldmVsaWQiOiIiLCJUaWNrZXRFeHBpcmVEYXRlIjoiMjIvNC8yMDIwIDQ6MTM6NDUgUE0iLCJzdWIiOiJzdHciLCJqdGkiOiJlMDY1ZTYyNi1lMTI1LTQwNTktODhlZi1jNDJjNzYzOTkwN2UiLCJpYXQiOjE1ODc1NzE3MjUsIm5iZiI6MTU4NzU3MTcyNSwiZXhwIjoxNTg3NTg5NzI1fQ._ZlvEhw8848nqA_EW47GngcMLMqg48XozZMOxcZZPuY",
									"type": "string"
								}
							]
						},
						"method": "POST",
						"header": [],
						"body": {
							"mode": "raw",
							"raw": "{\r\n\t\"cid\":\"C1047\",\r\n\t\"users\":[\"A1001\",\"A1002\"]\r\n}",
							"options": {
								"raw": {
									"language": "json"
								}
							}
						},
						"url": {
							"raw": "http://203.127.83.146/iVC_API/api/ConferencePermission",
							"protocol": "http",
							"host": [
								"203",
								"127",
								"83",
								"146"
							],
							"path": [
								"iVC_API",
								"api",
								"ConferencePermission"
							]
						}
					},
					"response": []
				}
			],
			"protocolProfileBehavior": {}
		},
		{
			"name": "Public",
			"item": [
				{
					"name": "Confrence List",
					"request": {
						"method": "POST",
						"header": [],
						"body": {
							"mode": "raw",
							"raw": "{\r\n\t\"conferenceDate\":\"26 April\"\r\n\t\r\n}",
							"options": {
								"raw": {
									"language": "json"
								}
							}
						},
						"url": {
							"raw": "http://203.127.83.146/iVC_API/api/Public/conferences",
							"protocol": "http",
							"host": [
								"203",
								"127",
								"83",
								"146"
							],
							"path": [
								"iVC_API",
								"api",
								"Public",
								"conferences"
							]
						}
					},
					"response": []
				},
				{
					"name": "Speaker List",
					"request": {
						"method": "GET",
						"header": [],
						"url": {
							"raw": "http://203.127.83.146/iVC_API/api/Public/speakers",
							"protocol": "http",
							"host": [
								"203",
								"127",
								"83",
								"146"
							],
							"path": [
								"iVC_API",
								"api",
								"Public",
								"speakers"
							]
						}
					},
					"response": []
				}
			],
			"protocolProfileBehavior": {}
		}
	],
	"protocolProfileBehavior": {}
}